{
  "modulePathIgnorePatterns": ["dist"],
  "extensionsToTreatAsEsm": [".ts"],
  "moduleNameMapper": {
    "^(\\.{1,2}/.*)\\.js$": "$1"
  },
  "transform": {
    "^.+\\.tsx?$": [
      "ts-jest",
      {
        "useESM": true
      }
    ]
  },
  "setupFiles": ["./jest.setup.ts"]
}